1 1 1
1 10 20
10 1 20
11 16 18
17 32 112
33 64 113
65 128 119
129 256 128
257 512 144
511 1024 179
1025 2048 182
2049 4096 238
4097 8192 262
8193 16384 276
16385 32768 308
32769 65536 340
65537 131072 354
131073 262144 443
262155 524288 470
524288 999999 525
100 200 125
201 210 89
200 300 128
300 400 144
400 500 142
600 700 145
800 900 179
900 1000 174
1000 2000 182
2000 3000 217
3000 4000 238
4000 5000 215
5000 6000 236
6000 7000 262
7000 8000 252
8000 9000 247
9000 10000 260
10000 20000 279
20000 30000 308
30000 40000 324
40000 50000 314
50000 60000 340
60000 70000 335
70000 80000 351
80000 90000 333
90000 100000 333
100000 110000 354
110000 120000 349
120000 130000 344
130000 140000 344
140000 150000 375
150000 160000 383
160000 170000 370
170000 180000 347
180000 190000 365
190000 200000 360
200000 210000 373
210000 220000 386
230000 240000 443
240000 250000 368
260000 270000 407
270000 280000 407
280000 290000 389
290000 300000 371
300000 310000 371
310000 320000 384
320000 330000 384
340000 350000 441
350000 360000 379
360000 370000 410
370000 380000 423
380000 390000 436
400000 410000 405
410000 420000 449
420000 430000 418
430000 440000 400
440000 450000 369
450000 460000 387
460000 470000 444
470000 480000 382
480000 490000 413
490000 500000 426
500000 510000 426
510000 520000 470
520000 530000 408
530000 540000 377
540000 550000 452
560000 570000 421
570000 580000 390
580000 590000 434
590000 600000 403
600000 610000 403
610000 620000 447
620000 630000 509
630000 640000 416
640000 650000 416
650000 660000 429
660000 670000 442
670000 680000 385
680000 690000 398
690000 700000 442
