1 10 20
100 200 125
201 210 89
900 1000 174
1234 2345 183
3456 4567 238
5678 6789 262
7890 99999 351
1 2 2
55 55 113
10 50 112
48 70 113
83 34 116
95 28 116
11 99 119
284 503 144
583 935 179
284 385 144
583 274 144
123 999 179
111 999 179
1111 9999 262
5930 2839 238
1385 9205 262
1583 2305 183
2483 3682 217
3149 4593 238
4272 5359 215
6209 7194 257
7204 8329 252
9290 9999 242
9999 1111 262
11111 99999 351
54392 65043 335
15092 25904 282
28549 34905 311
49503 59050 340
69503 75490 325
84390 94839 333
99999 11111 351
111111 999999 525
392582 399832 405
945832 945832 78
934723 942440 507
427893 749082 509
374203 849709 525
999999 111111 525
843294 438294 525
183918 328913 443
283492 884329 525
1 49 112
2 59 113
3 18 21
4 72 113
5 60 113
6 27 112
7 83 116
8 39 112
9 28 112
10 383 144
11 490 144
12 390 144
13 483 144
14 270 128
15 279 128
16 720 171
17 904 179
18 904 179
19 498 144
20 392 144
100 9033 262
101 3050 217
102 4920 238
103 9238 262
104 3810 238
105 4902 238
106 4845 238
107 7389 262
108 8203 262
190 2910 209
193 1029 179
4903 48949 324
3029 38204 324
4839 10949 262
8404 73293 340
4890 84392 351
5903 57280 340
4829 42895 324
5806 60914 340
5930 18994 279
9203 18943 279
4920 18392 279
4905 69402 340
4390 71893 340
4049 69284 340
9302 17840 279
85493 489302 449
58940 981834 525
94302 183943 383
59045 293845 443
18349 439020 449
19403 298504 443
58939 594305 470
54839 402394 443
48399 289347 443
50594 589043 470
82294 109483 354
58940 394083 443
1 1 1
100 100000 351
