1 10 20
100 200 125
201 210 89
900 1000 174
61955 899278 525
974944 672975 525
804071 26744 509
87048 185311 383
623770 942146 525
467306 853008 525
843729 788756 525
462184 104685 449
726151 136775 509
369982 799562 509
467460 899645 525
350339 226198 443
555029 453419 470
491437 526679 470
969955 976754 458
615343 474360 470
120630 35639 354
437706 393573 449
909773 212320 525
345520 110742 443
529359 457883 470
75992 948919 525
525464 830365 509
109867 397647 443
707368 914244 525
653341 489153 509
924369 529989 525
127901 129217 331
982322 23500 525
115792 826929 509
387637 676275 509
59643 975779 525
472407 928153 525
522518 953224 525
995291 167573 525
287706 102374 443
962493 980046 458
968206 532475 525
472897 572820 470
950534 648995 525
304821 865825 525
11019 518135 470
602547 330683 470
871438 979476 507
273648 819732 509
168757 896204 525
817098 821253 450
436335 966611 525
218333 186342 386
991309 146259 525
105084 707146 509
109134 179359 383
751680 210905 509
565567 2889 470
933165 487550 525
532460 73423 470
755700 625532 509
82274 308888 443
281989 499923 449
765392 497455 509
825678 270512 509
32617 284666 443
794235 768010 437
31548 338675 443
514931 880363 525
81781 518658 470
430968 665550 509
860538 913963 476
873938 86719 525
372347 995973 525
253954 183628 443
518542 221506 470
963075 481095 525
614294 829540 509
316822 616121 470
794068 477217 509
198490 429075 449
656283 671037 442
402837 393727 405
926888 293871 525
818097 758491 468
299923 298267 371
657612 478098 509
762588 85854 509
122351 424914 449
207552 615934 470
905313 529914 525
340885 76065 443
277734 690407 509
235008 884738 525
538937 380437 470
748950 173337 509
164083 706551 509
811423 769804 468
380346 530735 470
791753 229159 509
441516 186846 449
2157 515811 470
342670 403592 441
340823 905345 525
743051 711 509
48273 99126 351
73282 68498 325
119868 217259 386
447444 112955 449
64304 397928 443
483266 129646 449
714755 212694 509
670784 744382 504
387224 426321 449
988541 356191 525
316221 952387 525
412564 124747 449
347554 693419 509
395994 664889 509
748118 553269 509
357967 888649 525
838496 493852 525
912030 985422 507
433388 758740 509
968324 32848 525
111534 454676 449
53694 845047 525
580261 677898 509
295158 594048 470
