413139 146747 449
277828 705629 509
388468 403784 436
266941 362674 441
209090 488034 449
511789 491323 426
82777 526661 470
187701 75358 383
87035 231721 443
716483 763066 424
231546 807141 509
407051 905680 525
548361 563059 421
481742 859877 525
596196 11620 470
16757 817815 509
407412 660252 509
658432 224715 509
613669 800427 509
410642 40933 449
170730 260293 443
913350 151647 525
49310 839450 525
95778 600608 470
42738 897542 525
155638 543471 470
209193 685014 509
889610 835680 525
226038 931666 525
138741 356749 443
852384 547076 525
515066 648191 509
41023 182555 383
925144 732004 525
465067 680306 509
733721 964112 525
201624 844171 525
786924 812128 468
749359 522501 509
901910 959260 507
588383 666297 509
109223 173317 383
250396 465607 449
156441 340413 443
114012 814403 509
822663 742240 468
438071 940124 525
755620 505771 509
536318 801333 509
916601 232474 525
132762 240755 443
336343 31276 443
19442 460251 449
807230 895205 525
669711 218208 509
144102 665122 509
535874 53586 470
621425 553073 447
229906 802935 509
229648 1358 386
140600 949770 525
716949 569872 509
756624 273711 509
293360 834598 509
958391 354714 525
262079 499495 449
622812 752103 509
533747 578326 452
606892 610022 403
709026 5232 509
324047 30343 443
27057 420610 449
423694 587362 470
51645 100358 351
340901 417453 449
766768 965864 525
655138 491108 509
76005 903165 525
328735 146670 443
862351 827884 525
729344 320027 509
136952 153201 375
39291 810022 509
377028 759226 509
745561 457392 509
895784 832508 525
435841 766531 509
137793 691447 509
962121 779108 525
524990 553280 452
800697 542949 509
501181 985524 525
17398 236581 443
332224 507988 449
170381 385414 443
577001 369251 470
320648 207606 443
804989 992383 525
727581 911285 525
755497 15620 509
366691 645728 509
459876 188664 449
708677 318997 509
465918 421455 444
663048 484799 509
853594 796878 525
285480 549692 470
73703 942311 525
200820 727721 509
470110 241540 449
558861 464704 470
185159 181183 334
312125 929090 525
565017 540688 452
609363 226503 470
908866 147179 525
516171 545702 439
443273 192276 449
395527 700245 509
284245 47624 443
394028 615571 470
773366 46670 509
684653 320283 509
478893 783571 509
294477 844067 525
852563 658644 525
656335 515769 509
9232 30875 308
7283 523542 470
905786 167882 525
444636 196502 449
692739 174682 509
930164 513238 525
73948 85209 351
304080 737308 509
37286 127549 354
296605 679918 509
166192 800930 509
572940 477399 470
968640 165115 525
556775 533198 452
609441 597969 403
211079 853058 525
261738 756004 509
44032 609818 470
366286 364212 361
506404 810207 509
134695 704289 509
193149 356044 443
724547 769956 468
